Data
…
---

.pull-left45[

# Inspect content

```r
# inspect baselers via print
baselers
```

```
## # A tibble: 10,000 x 20
##      id sex     age height weight income
##   <dbl> <chr> <dbl>  <dbl>  <dbl>  <dbl>
## 1     1 male     44   174.  113.    6300
## 2     2 male     65   180.   75.2  10900
## 3     3 fema…    31   168.   55.5   5100
## 4     4 male     27   209    93.8   4200
## 5     5 male     24   177.   NA     4000
##   education confession children
##   <chr>     <chr>         <dbl>
## 1 SEK_III   catholic          2
## 2 obligato… confessio…        2
## 3 SEK_III   <NA>              2
## 4 SEK_III   catholic          2
## 5 SEK_III   catholic          1
## # … with 9,995 more rows, and 11 more
## #   variables
```
…
.pull-left45[

# Change/Add via <high>`$`</high>

```r
# Divide income by 1000
baselers$income <- baselers$income / 1000

# inspect baselers
baselers
```

```
## # A tibble: 10,000 x 20
##      id sex     age height weight income
##   <dbl> <chr> <dbl>  <dbl>  <dbl>  <dbl>
## 1     1 male     44   174.  113.     6.3
## 2     2 male     65   180.   75.2   10.9
## 3     3 fema…    31   168.   55.5    5.1
## 4     4 male     27   209    93.8    4.2
## 5     5 male     24   177.   NA      4  
##   education confession children
##   <chr>     <chr>         <dbl>
## 1 SEK_III   catholic          2
## 2 obligato… confessio…        2
## 3 SEK_III   <NA>              2
## 4 SEK_III   catholic          2
## 5 SEK_III   catholic          1
## # … with 9,995 more rows, and 11 more
## #   variables
```
…
```
## See spec(...) for full column specifications.
```

```
## # A tibble: 10,000 x 20
##      id sex     age height weight income
##   <dbl> <chr> <dbl>  <dbl>  <dbl>  <dbl>
## 1     1 male     44   174.  113.    6300
## 2     2 male     65   180.   75.2  10900
## 3     3 fema…    31   168.   55.5   5100
## 4     4 male     27   209    93.8   4200
## 5     5 male     24   177.   NA     4000
##   education confession children
##   <chr>     <chr>         <dbl>
## 1 SEK_III   catholic          2
## 2 obligato… confessio…        2
## 3 SEK_III   <NA>              2
## 4 SEK_III   catholic          2
## 5 SEK_III   catholic          1
## # … with 9,995 more rows, and 11 more
## #   variables
```
…
