Wrangling
…
Using the same code structure, load the trial_act_demo_fake.csv data as a new dataframe called trial_act_demo.

# Load trial_act_demo_fake.csv from the data folder in your 
#  working directory as a new object called trial_act_demo

XX <- XX(XX = "XX/XX")

trial_act_demo <- read_csv(file = "1_Data/trial_act_demo_fake.csv")

Take a look at the first few rows of the datasets by printing them to the console.

# Print trial_act object
trial_act

# A tibble: 2,139 x 27
   pidnum   age  wtkg  hemo  homo drugs karnof oprior   z30 zprior preanti
    <dbl> <dbl> <dbl> <dbl> <dbl> <dbl>  <dbl>  <dbl> <dbl>  <dbl>   <dbl>
 1  10056    48  89.8     0     0     0    100      0     0      1       0
 2  10059    61  49.4     0     0     0     90      0     1      1     895
 3  10089    45  88.5     0     1     1     90      0     1      1     707
 4  10093    47  85.3     0     1     0    100      0     1      1    1399
 5  10124    43  66.7     0     1     0    100      0     1      1    1352
 6  10140    46  88.9     0     1     1    100      0     1      1    1181
 7  10165    31  73.0     0     1     0    100      0     1      1     930
 8  10190    41  66.2     0     1     1    100      0     1      1    1329
 9  10198    40  82.6     0     1     0     90      0     1      1    1074
10  10229    35  78.0     0     1     0    100      0     1      1     964
# … with 2,129 more rows, and 16 more variables: race <dbl>, gender <dbl>,
#   str2 <dbl>, strat <dbl>, symptom <dbl>, treat <dbl>, offtrt <dbl>,
#   cd40 <dbl>, cd420 <dbl>, cd496 <dbl>, r <dbl>, cd80 <dbl>,
#   cd820 <dbl>, cens <dbl>, days <dbl>, arms <dbl>

# Print trial_act_demo object
trial_act_demo

# A tibble: 2,139 x 3
   pidnum exercise education
    <dbl>    <dbl> <chr>    
 1  10931        4 HS       
 2  11971        1 <HS      
 3 330244        1 HS       
 4 270879        1 BA       
 5  11435        0 <HS      
 6 270849        0 PHD      
 7  10840        1 <HS      
 8 241099        3 <HS      
 9  71371        2 BA       
10 241370        0 MS       
# … with 2,129 more rows
…
trial_act <- trial_act %>%
  rename(age_y = age)

C - Select columns with select()

Using the select() function, select only the column age_y and print the result (but don’t assign it to anything). Do you see only the age_y column now?

XX %>%
  select(XX)

trial_act %>% 
  select(age_y)

# A tibble: 2,139 x 1
   age_y
   <dbl>
 1    48
 2    61
 3    45
 4    47
 5    43
 6    46
 7    31
 8    41
 9    40
10    35
# … with 2,129 more rows

Using select() select the columns pidnum, age_y, gender, and weight_kg (but don’t assign the result to anything)

XX %>%
  select(XX, XX, XX, XX)

trial_act %>% 
  select(pidnum, age_y, gender, weight_kg)

# A tibble: 2,139 x 4
   pidnum age_y gender weight_kg
    <dbl> <dbl>  <dbl>     <dbl>
 1  10056    48      0      89.8
 2  10059    61      0      49.4
 3  10089    45      1      88.5
 4  10093    47      1      85.3
 5  10124    43      1      66.7
 6  10140    46      1      88.9
 7  10165    31      1      73.0
 8  10190    41      1      66.2
 9  10198    40      1      82.6
10  10229    35      1      78.0
# … with 2,129 more rows
…
E - Arrange rows with arrange()

Using the arrange() function, arrange the trial_act data in ascending order of age_y (from lowest to highest). After you do, print the data to make sure it worked!

trial_act <- trial_act %>% 
 arrange(XXX)

trial_act <- trial_act %>% 
 arrange(age_y)

trial_act

# A tibble: 2,139 x 33
   pidnum age_y weight_kg  hemo  homo drugs karnof oprior   z30 zprior
    <dbl> <dbl>     <dbl> <dbl> <dbl> <dbl>  <dbl>  <dbl> <dbl>  <dbl>
 1 940533    12      41.4     1     0     0    100      0     0      1
 2 950037    12      53.1     1     0     0    100      0     1      1
 3 950056    12      31       1     0     0    100      0     1      1
 4 910034    13      32.7     1     0     0    100      0     1      1
 5 940534    13      62.9     1     0     0    100      0     0      1
 6 960014    13      48.5     1     0     0    100      0     0      1
 7 310767    14      65       1     0     0    100      0     1      1
 8 920050    14      54.2     1     0     0    100      0     1      1
 9 940544    14      41.1     1     0     0    100      0     0      1
10 950061    14      64.3     1     0     0    100      0     1      1
# … with 2,129 more rows, and 23 more variables: preanti <dbl>,
#   race <dbl>, gender <dbl>, str2 <dbl>, strat <dbl>, symptom <dbl>,
#   treat <dbl>, offtrt <dbl>, cd40 <dbl>, cd420 <dbl>, cd496 <dbl>,
#   r <dbl>, cd80 <dbl>, cd820 <dbl>, cens <dbl>, days <dbl>, arms <dbl>,
#   age_m <dbl>, weight_lb <dbl>, cd_change_20 <dbl>, cd_change_960 <dbl>,
#   gender_char <chr>, arms_char <chr>

Now arrange the data in descending order of age_y (from highest to lowest). After, look the data to make sure it worked. To arrange data in descending order, just include desc() around the variable

trial_act <- trial_act %>% 
 arrange(desc(XXX))

trial_act <- trial_act %>% 
 arrange(desc(age_y))

trial_act

# A tibble: 2,139 x 33
   pidnum age_y weight_kg  hemo  homo drugs karnof oprior   z30 zprior
    <dbl> <dbl>     <dbl> <dbl> <dbl> <dbl>  <dbl>  <dbl> <dbl>  <dbl>
 1  11438    70      73.9     0     1     0    100      0     1      1
 2 211360    70      63.1     0     1     0     90      0     0      1
 3 211284    69      81.6     0     1     0    100      0     0      1
 4  50580    68      90.5     0     1     1    100      0     1      1
 5  81127    68      70.8     0     1     0     90      0     1      1
 6  10924    67      71       0     1     0    100      0     0      1
 7 241150    67      82.1     0     1     0     90      0     0      1
 8  50662    66      84.4     0     1     0    100      0     0      1
 9  11987    65      77.2     0     1     0     90      0     0      1
10 140797    65      60.5     0     1     0     90      0     0      1
# … with 2,129 more rows, and 23 more variables: preanti <dbl>,
#   race <dbl>, gender <dbl>, str2 <dbl>, strat <dbl>, symptom <dbl>,
#   treat <dbl>, offtrt <dbl>, cd40 <dbl>, cd420 <dbl>, cd496 <dbl>,
#   r <dbl>, cd80 <dbl>, cd820 <dbl>, cens <dbl>, days <dbl>, arms <dbl>,
#   age_m <dbl>, weight_lb <dbl>, cd_change_20 <dbl>, cd_change_960 <dbl>,
#   gender_char <chr>, arms_char <chr>

You can sort the rows of dataframes with multiple columns by including many arguments to arrange(). Now sort the data by arms (arms) and then age_y (age_y). Print the result to make sure it looks right!

trial_act <- trial_act %>% 
 arrange(XXX, XXX)

trial_act <- trial_act %>% 
 arrange(arms, age_y)

trial_act

# A tibble: 2,139 x 33
   pidnum age_y weight_kg  hemo  homo drugs karnof oprior   z30 zprior
    <dbl> <dbl>     <dbl> <dbl> <dbl> <dbl>  <dbl>  <dbl> <dbl>  <dbl>
 1 960014    13      48.5     1     0     0    100      0     0      1
 2 960031    14      48.3     1     0     0    100      0     0      1
 3 990071    14      60       1     0     0    100      0     0      1
 4 980042    16      63       1     0     0    100      0     1      1
 5 171040    17      51.3     0     0     0     90      0     0      1
 6 990026    17     103.      1     0     0    100      0     1      1
 7 310234    18      57.3     1     0     0    100      0     1      1
 8 940519    18      56.8     1     0     0    100      0     1      1
 9 211314    19      50.8     0     0     0     90      0     0      1
10 340767    19      74.8     0     1     0    100      0     0      1
# … with 2,129 more rows, and 23 more variables: preanti <dbl>,
#   race <dbl>, gender <dbl>, str2 <dbl>, strat <dbl>, symptom <dbl>,
#   treat <dbl>, offtrt <dbl>, cd40 <dbl>, cd420 <dbl>, cd496 <dbl>,
#   r <dbl>, cd80 <dbl>, cd820 <dbl>, cens <dbl>, days <dbl>, arms <dbl>,
#   age_m <dbl>, weight_lb <dbl>, cd_change_20 <dbl>, cd_change_960 <dbl>,
#   gender_char <chr>, arms_char <chr>

F - Filter specific rows with filter()

Using the filter() function, filter only the rows from males but don’t save the result (Hint: gender_char == "male")

trial_act %>%
  filter(XXX == "XXX")

trial_act %>%
  filter(gender_char == "male")

# A tibble: 1,771 x 33
   pidnum age_y weight_kg  hemo  homo drugs karnof oprior   z30 zprior
    <dbl> <dbl>     <dbl> <dbl> <dbl> <dbl>  <dbl>  <dbl> <dbl>  <dbl>
 1 960014    13      48.5     1     0     0    100      0     0      1
 2 960031    14      48.3     1     0     0    100      0     0      1
 3 990071    14      60       1     0     0    100      0     0      1
 4 980042    16      63       1     0     0    100      0     1      1
 5 990026    17     103.      1     0     0    100      0     1      1
 6 940519    18      56.8     1     0     0    100      0     1      1
 7 340767    19      74.8     0     1     0    100      0     0      1
 8 211007    20      72.7     0     1     0     90      0     1      1
 9 261065    20      57.3     0     1     0    100      0     0      1
10 490308    20      72       0     1     0    100      0     0      1
# … with 1,761 more rows, and 23 more variables: preanti <dbl>,
#   race <dbl>, gender <dbl>, str2 <dbl>, strat <dbl>, symptom <dbl>,
#   treat <dbl>, offtrt <dbl>, cd40 <dbl>, cd420 <dbl>, cd496 <dbl>,
#   r <dbl>, cd80 <dbl>, cd820 <dbl>, cens <dbl>, days <dbl>, arms <dbl>,
#   age_m <dbl>, weight_lb <dbl>, cd_change_20 <dbl>, cd_change_960 <dbl>,
#   gender_char <chr>, arms_char <chr>

Create a new dataframe called trial_act_male that only contains rows from males (hint: just assign what you did in the previous question to a new object!). After you create the object, print it to make sure it looks right.

trial_act_male <- trial_act %>%
  filter(gender_char == "male")

trial_act_male

# A tibble: 1,771 x 33
   pidnum age_y weight_kg  hemo  homo drugs karnof oprior   z30 zprior
    <dbl> <dbl>     <dbl> <dbl> <dbl> <dbl>  <dbl>  <dbl> <dbl>  <dbl>
 1 960014    13      48.5     1     0     0    100      0     0      1
 2 960031    14      48.3     1     0     0    100      0     0      1
 3 990071    14      60       1     0     0    100      0     0      1
 4 980042    16      63       1     0     0    100      0     1      1
 5 990026    17     103.      1     0     0    100      0     1      1
 6 940519    18      56.8     1     0     0    100      0     1      1
 7 340767    19      74.8     0     1     0    100      0     0      1
 8 211007    20      72.7     0     1     0     90      0     1      1
 9 261065    20      57.3     0     1     0    100      0     0      1
10 490308    20      72       0     1     0    100      0     0      1
# … with 1,761 more rows, and 23 more variables: preanti <dbl>,
#   race <dbl>, gender <dbl>, str2 <dbl>, strat <dbl>, symptom <dbl>,
#   treat <dbl>, offtrt <dbl>, cd40 <dbl>, cd420 <dbl>, cd496 <dbl>,
#   r <dbl>, cd80 <dbl>, cd820 <dbl>, cens <dbl>, days <dbl>, arms <dbl>,
#   age_m <dbl>, weight_lb <dbl>, cd_change_20 <dbl>, cd_change_960 <dbl>,
#   gender_char <chr>, arms_char <chr>

Filter only rows for patients under the age of 60 and save the result to trial_act_young. After you create it, print the object to make sure it looks right.

trial_act_young <- trial_act %>%
  filter(age_y < 60)

trial_act_young

# A tibble: 2,110 x 33
   pidnum age_y weight_kg  hemo  homo drugs karnof oprior   z30 zprior
    <dbl> <dbl>     <dbl> <dbl> <dbl> <dbl>  <dbl>  <dbl> <dbl>  <dbl>
 1 960014    13      48.5     1     0     0    100      0     0      1
 2 960031    14      48.3     1     0     0    100      0     0      1
 3 990071    14      60       1     0     0    100      0     0      1
 4 980042    16      63       1     0     0    100      0     1      1
 5 171040    17      51.3     0     0     0     90      0     0      1
 6 990026    17     103.      1     0     0    100      0     1      1
 7 310234    18      57.3     1     0     0    100      0     1      1
 8 940519    18      56.8     1     0     0    100      0     1      1
 9 211314    19      50.8     0     0     0     90      0     0      1
10 340767    19      74.8     0     1     0    100      0     0      1
# … with 2,100 more rows, and 23 more variables: preanti <dbl>,
#   race <dbl>, gender <dbl>, str2 <dbl>, strat <dbl>, symptom <dbl>,
#   treat <dbl>, offtrt <dbl>, cd40 <dbl>, cd420 <dbl>, cd496 <dbl>,
#   r <dbl>, cd80 <dbl>, cd820 <dbl>, cens <dbl>, days <dbl>, arms <dbl>,
#   age_m <dbl>, weight_lb <dbl>, cd_change_20 <dbl>, cd_change_960 <dbl>,
#   gender_char <chr>, arms_char <chr>
…
In order to combine the two dataframes, we need to find one ‘key’ column that we can use to match rows. Look at both the trial_act and trial_act_demo dataframes. Which column can we use as the ‘key’ column?

Use the left_join() function to combine the trial_act and trial_act_demo datasets, set the by argument to the name of the key column that is common in both data sets. Assign the result to trial_act.

trial_act <- trial_act %>%
  left_join(XX, by = "XX")

trial_act <- trial_act %>%
  left_join(trial_act_demo, by = "pidnum")

Print your new trial_act dataframe. Do you now see the demographic data?

trial_act

# A tibble: 2,139 x 35
   pidnum age_y weight_kg  hemo  homo drugs karnof oprior   z30 zprior
    <dbl> <dbl>     <dbl> <dbl> <dbl> <dbl>  <dbl>  <dbl> <dbl>  <dbl>
 1 960014    13      48.5     1     0     0    100      0     0      1
 2 960031    14      48.3     1     0     0    100      0     0      1
 3 990071    14      60       1     0     0    100      0     0      1
 4 980042    16      63       1     0     0    100      0     1      1
 5 171040    17      51.3     0     0     0     90      0     0      1
 6 990026    17     103.      1     0     0    100      0     1      1
 7 310234    18      57.3     1     0     0    100      0     1      1
 8 940519    18      56.8     1     0     0    100      0     1      1
 9 211314    19      50.8     0     0     0     90      0     0      1
10 340767    19      74.8     0     1     0    100      0     0      1
# … with 2,129 more rows, and 25 more variables: preanti <dbl>,
#   race <dbl>, gender <dbl>, str2 <dbl>, strat <dbl>, symptom <dbl>,
#   treat <dbl>, offtrt <dbl>, cd40 <dbl>, cd420 <dbl>, cd496 <dbl>,
#   r <dbl>, cd80 <dbl>, cd820 <dbl>, cens <dbl>, days <dbl>, arms <dbl>,
#   age_m <dbl>, weight_lb <dbl>, cd_change_20 <dbl>, cd_change_960 <dbl>,
#   gender_char <chr>, arms_char <chr>, exercise <dbl>, education <chr>

H - Reshaping with gather() and spread()

Remember the CD4_wide dataframe you created before? Currently it is in the wide format, where each row is a patient, where key data (different CD4 T cell counts) are in different columns like this:

# Data is in a 'wide' format
CD4_wide

# A tibble: 2,139 x 5
   pidnum  arms  cd40 cd420 cd496
    <dbl> <dbl> <dbl> <dbl> <dbl>
 1 960014     0   283   271    NA
 2 960031     0   481   428   519
 3 990071     0   166   169    28
 4 980042     0   299   214   124
 5 171040     0   549   415   436
 6 990026     0   373   218    NA
 7 310234     0   445   371   338
 8 940519     0   276   150    34
 9 211314     0   298   267    NA
10 340767     0   503   452    NA
# … with 2,129 more rows

Our goal is to convert this data to a ‘long’ format, where each row represents a single CD4 T cell count for a specific patient, like this:

# This is the same data in 'long' format
CD4_long

# A tibble: 6,417 x 4
   pidnum  arms time  value
    <dbl> <dbl> <chr> <dbl>
 1 960014     0 cd40    283
 2 960031     0 cd40    481
 3 990071     0 cd40    166
 4 980042     0 cd40    299
 5 171040     0 cd40    549
 6 990026     0 cd40    373
 7 310234     0 cd40    445
 8 940519     0 cd40    276
 9 211314     0 cd40    298
10 340767     0 cd40    503
# … with 6,407 more rows
…
CD4_long <- CD4_wide %>% 
  gather(XX,  # New grouping column
         XX,  # New data column
         -pidnum, -arms)  # Names of columns to replicate

CD4_long <- CD4_wide %>% 
  gather(time,  # New grouping column
         value,  # New data column
         -pidnum, -arms)  # Names of columns to replicate

Print your CD4_long dataframe! Do you now see that each row is a specific observation for a patient?

CD4_long

# A tibble: 6,417 x 4
   pidnum  arms time  value
    <dbl> <dbl> <chr> <dbl>
 1 960014     0 cd40    283
 2 960031     0 cd40    481
 3 990071     0 cd40    166
 4 980042     0 cd40    299
 5 171040     0 cd40    549
 6 990026     0 cd40    373
 7 310234     0 cd40    445
 8 940519     0 cd40    276
 9 211314     0 cd40    298
10 340767     0 cd40    503
# … with 6,407 more rows

Now use the spread() function to convert the long data bring the data back into the wide format! To do this, make the first argument time, and the second argument value (you don’t need to save the object)

CD4_long %>%
  spread(XX,   # Grouping column
         XX)   # Value columnn

CD4_long %>%
  spread(time, value)

# A tibble: 2,139 x 5
   pidnum  arms  cd40 cd420 cd496
    <dbl> <dbl> <dbl> <dbl> <dbl>
 1  10056     2   422   477   660
 2  10059     3   162   218    NA
 3  10089     3   326   274   122
 4  10093     3   287   394    NA
 5  10124     0   504   353   660
 6  10140     1   235   339   264
 7  10165     0   244   225   106
 8  10190     0   401   366   453
 9  10198     3   214   107     8
10  10229     0   221   132    NA
# … with 2,129 more rows
…
Only patients who take intravenous drugs (drugs == 1) and…

Only patients younger than 60 and…

Only patients whose baseline CD4 T cell counts cd40 were greater than 250 and less than 400.

trial_A <- trial_act %>%
  filter(drugs == 1,
         age_y < 60,
         cd40 > 250 & cd40 < 400)

trial_A

# A tibble: 126 x 35
   pidnum age_y weight_kg  hemo  homo drugs karnof oprior   z30 zprior
    <dbl> <dbl>     <dbl> <dbl> <dbl> <dbl>  <dbl>  <dbl> <dbl>  <dbl>
 1 630023    26      86.2     0     0     1     90      0     0      1
 2  10378    27      67.3     0     0     1     90      0     1      1
 3 320475    27      66.6     0     0     1     90      0     0      1
 4  71333    29      73.9     0     1     1    100      0     0      1
 5 140809    29      70       0     1     1    100      0     0      1
 6 630030    29      88.2     0     0     1    100      0     0      1
 7 190395    33      68       0     0     1    100      0     1      1
 8 320365    34      86.0     0     0     1    100      0     0      1
 9 540015    34      72.6     0     0     1    100      0     0      1
10 180917    35      77.7     0     0     1     90      0     1      1
# … with 116 more rows, and 25 more variables: preanti <dbl>, race <dbl>,
#   gender <dbl>, str2 <dbl>, strat <dbl>, symptom <dbl>, treat <dbl>,
#   offtrt <dbl>, cd40 <dbl>, cd420 <dbl>, cd496 <dbl>, r <dbl>,
#   cd80 <dbl>, cd820 <dbl>, cens <dbl>, days <dbl>, arms <dbl>,
#   age_m <dbl>, weight_lb <dbl>, cd_change_20 <dbl>, cd_change_960 <dbl>,
#   gender_char <chr>, arms_char <chr>, exercise <dbl>, education <chr>
…
